<svg viewBox="0 0 43 30" fill="none" xmlns="http://www.w3.org/2000/svg">
<path d="M4.29155 29.2679V0.2H38.2606V29.2679H4.29155Z" fill="white" stroke="#F44336" stroke-width="0.4"/>
<path d="M38.5629 0.140976H37.2331L21.2761 11.7202L5.31902 0.140976H3.98926C1.78719 0.140976 0 1.78328 0 3.80684V25.802C0 27.8256 1.78719 29.4679 3.98926 29.4679H5.31902V6.60756L21.2761 17.8862L37.2331 6.60511V29.4679H38.5629C40.7649 29.4679 42.5521 27.8256 42.5521 25.802V3.80684C42.5521 1.78328 40.7649 0.140976 38.5629 0.140976Z" fill="#F44336"/>
</svg>
