<svg viewBox="0 0 16 19" fill="none" xmlns="http://www.w3.org/2000/svg">
<path d="M15.7452 11.2299C15.7452 15.1448 12.8886 18.392 9.14363 19C9.51313 15.7924 10.9991 15.6926 10.9991 12.8988C10.9991 11.0119 9.76213 9.48154 7.87262 9.48154C5.98305 9.48154 4.74611 11.0119 4.74611 12.8988C4.74611 15.488 6.21368 15.6691 6.60155 19C2.85914 18.392 0 15.1448 0 11.2299C0 4.72266 7.75206 0 7.75206 0C6.88456 3.37787 10.8418 7.31691 10.8418 7.31691C10.6007 5.70519 12.1207 3.40138 12.1207 3.40138C12.5531 5.91238 15.7452 7.39572 15.7452 11.2299Z" fill="white"/>
</svg>
