<svg width="48" height="48" viewBox="0 0 48 48" fill="none" xmlns="http://www.w3.org/2000/svg">
<circle cx="23.7983" cy="23.7983" r="22.1849" fill="white"/>
<path d="M39.4413 25.3798L34.6351 28.0415L31.9705 26.5218L36.5036 23.9953L16.5181 13.0554V20.5818L32.3479 29.3739L13.517 39.8297V26.2396L20.55 30.1004L17.7458 31.7372L16.3753 30.8679L16.3437 35.0427L26.3333 29.323L13.517 22.1108V8.17024L42.2201 24.0207L39.4413 25.3798ZM23.9984 1.3051e-06C10.7445 1.3051e-06 0 10.7489 0 24C0 37.2569 10.7445 48 23.9984 48C37.2523 48 48 37.2569 48 24C48 10.7489 37.2523 1.3051e-06 23.9984 1.3051e-06" fill="#D12B3B"/>
</svg>
